module gitlab.com/LamTNB/go-template

go 1.17

require (
	github.com/astaxie/beego v1.12.3
	github.com/dgrijalva/jwt-go v3.1.0+incompatible
	github.com/gin-gonic/gin v1.7.7
	github.com/go-akka/configuration v0.0.0-20200606091224-a002c0330665
	github.com/go-ini/ini v1.32.1-0.20180214101753-32e4be5f41bb
	github.com/gomodule/redigo v2.0.1-0.20180401191855-9352ab68be13+incompatible
	gorm.io/driver/postgres v1.3.1
	gorm.io/gorm v1.23.1
)

require (
	github.com/gin-contrib/sse v0.1.0 // indirect
	github.com/go-playground/locales v0.13.0 // indirect
	github.com/go-playground/universal-translator v0.17.0 // indirect
	github.com/go-playground/validator/v10 v10.4.1 // indirect
	github.com/golang/protobuf v1.4.2 // indirect
	github.com/gopherjs/gopherjs v0.0.0-20181103185306-d547d1d9531e // indirect
	github.com/jackc/chunkreader/v2 v2.0.1 // indirect
	github.com/jackc/pgconn v1.10.1 // indirect
	github.com/jackc/pgio v1.0.0 // indirect
	github.com/jackc/pgpassfile v1.0.0 // indirect
	github.com/jackc/pgproto3/v2 v2.2.0 // indirect
	github.com/jackc/pgservicefile v0.0.0-20200714003250-2b9c44734f2b // indirect
	github.com/jackc/pgtype v1.9.1 // indirect
	github.com/jackc/pgx/v4 v4.14.1 // indirect
	github.com/jinzhu/inflection v1.0.0 // indirect
	github.com/jinzhu/now v1.1.4 // indirect
	github.com/json-iterator/go v1.1.10 // indirect
	github.com/jtolds/gls v4.2.1+incompatible // indirect
	github.com/leodido/go-urn v1.2.0 // indirect
	github.com/mattn/go-isatty v0.0.12 // indirect
	github.com/modern-go/concurrent v0.0.0-20180306012644-bacd9c7ef1dd // indirect
	github.com/modern-go/reflect2 v1.0.1 // indirect
	github.com/shiena/ansicolor v0.0.0-20151119151921-a422bbe96644 // indirect
	github.com/smartystreets/assertions v0.0.0-20190116191733-b6c0e53d7304 // indirect
	github.com/smartystreets/goconvey v0.0.0-20181108003508-044398e4856c // indirect
	github.com/ugorji/go/codec v1.1.7 // indirect
	golang.org/x/crypto v0.0.0-20210921155107-089bfa567519 // indirect
	golang.org/x/sys v0.0.0-20210615035016-665e8c7367d1 // indirect
	golang.org/x/text v0.3.7 // indirect
	google.golang.org/protobuf v1.23.0 // indirect
	gopkg.in/ini.v1 v1.66.4 // indirect
	gopkg.in/yaml.v2 v2.2.8 // indirect
)
